{
  "dev": {
    "name": "Dev",
    "label": "section::dev"
  },
  "ops": {
    "name": "Ops",
    "label": "section::ops"
  },
  "sec": {
    "name": "Sec",
    "label": "section::sec"
  },
  "growth": {
    "name": "Growth",
    "label": "section::growth"
  },
  "fulfillment": {
    "name": "Fulfillment",
    "label": "section::fulfillment"
  },
  "enablement": {
    "name": "Enablement",
    "label": "section::enablement"
  },
  "spg": {
    "name": "Single-Person Groups",
    "label": "section::spg"
  }
}
